{
    "level_width": 12,
    "level_height": 5,
    "levels":
    [
        [0, 1, 2, 1, 0, 1, 2, 1, 0, 1, 1, 2,
         1, 0, 1, 2, 1, 0, 1, 2, 2, 1, 0, 1,
         2, 1, 0, 1, 2, 1, 0, 1, 2, 1, 0, 1,
         2, 1, 0, 1, 1, 2, 1, 0, 1, 2, 1, 0,
         1, 2, 2, 1, 0, 1, 2, 1, 0, 1, 2, 1],

        [0, 0, 1, 1, 2, 2, 1, 1, 0, 0,
         1, 1, 2, 2, 1, 1, 0, 0, 1, 1,
         2, 2, 1, 1, 0, 0, 1, 1, 2, 2,
         1, 1, 0, 0, 1, 1, 2, 2, 1, 1,
         0, 0, 1, 1, 2, 2, 1, 1, 0, 0,
         1, 1, 2, 2, 1, 1, 0, 0, 1, 1,
         2, 2, 1, 1, 0, 0, 1, 1, 2, 2,
         1, 1, 0, 0, 1, 1, 2, 2, 1, 1]
    ]
}